[
    {
        "id": 1,
        "name": "Sirima",
        "surname": "Suwan",
        "activities": [
            1,
            3
        ]
    },
    {
        "id": 2,
        "name": "CMU",
        "surname": "Teacher",
        "activities": [
            2
        ]
    }
]